Analiza političarki
…
wCount <- web_tokenTidy %>% 
  group_by(FROM) %>%
  summarise(word = n())
CroSentilex_Gold_neg <- CroSentilex_Gold %>% filter(sentiment == 1)
CroSentilex_Gold_poz <- CroSentilex_Gold %>% filter(sentiment == 2)
web_tokenTidy %>% 
  semi_join(CroSentilex_Gold_neg, by= "word") %>%
  group_by(FROM) %>% 
  summarise(negWords = n()) %>%
  left_join(wCount, by = "FROM") %>%
  mutate(negativnostIndex = (negWords/word)*100) %>%
  arrange(desc(negativnostIndex)) %>%
  print(., big.mark=",")

## # A tibble: 207 x 4
##    FROM                   negWords  word negativnostIndex
##    <chr>                     <int> <int>            <dbl>
##  1 360hr.news                   27   723             3.73
##  2 zupanjac.net                 16   559             2.86
##  3 mojabih.live                 73  2949             2.48
##  4 novo.hr                      22   922             2.39
##  5 sabh.hr                      40  1765             2.27
##  6 sdss.hr                       8   354             2.26
##  7 vidiportal.ba                 9   399             2.26
##  8 most-hrvatska.hr             60  2663             2.25
##  9 ipress.hr                     9   419             2.15
## 10 varazdinske-vijesti.hr        7   329             2.13
## # ... with 197 more rows

…also positivity:

## Najpozitivniji portali
CroSentilex_Gold_poz <- CroSentilex_Gold %>% filter(sentiment == 2)
web_tokenTidy %>% 
  semi_join(CroSentilex_Gold_poz, by= "word") %>%
  group_by(FROM) %>% 
  summarise(pozWords = n()) %>%
  left_join(wCount, by = "FROM") %>%
  mutate(pozitivnostIndex = (pozWords/word)*100) %>%
  arrange(desc(pozitivnostIndex)) %>%
  print(., big.mark=",") 

## # A tibble: 225 x 4
##    FROM                pozWords  word pozitivnostIndex
##    <chr>                  <int> <int>            <dbl>
##  1 dubrovnikinsider.hr        9   190             4.74
##  2 24vesti.com               10   244             4.10
##  3 medjugorje-info.com       61  1532             3.98
##  4 hkm.hr                    56  1469             3.81
##  5 liberoportal.hr           12   325             3.69
##  6 laudato.hr                 4   117             3.42
##  7 dalmacijanews.hr          18   569             3.16
##  8 skolskiportal.hr          12   386             3.11
##  9 nasabujstina.com           6   194             3.09
## 10 cgo-cce.org               11   361             3.05
## # ... with 215 more rows
…
